(run){
  zmass:=91.1876;
  EW_SCHEME 0;
  SIN2THETAW=0.23155;
  MASS[23]=zmass;
  WIDTH[23]=2.4952;

  PDF_SET NNPDF30_nlo_as_0118
  PDF_LIBRARY LHAPDFSherpa
  BEAM_1 2212 7000; BEAM_2 2212 7000;
  SCALES VAR{sqr(zmass)}; ALPHAS(MZ) 0.118;
  EVENTS 0;
}(run);

(processes){
  Process 1 -1 -> -11 11 21
  Order (1,2);
  ME_Generator Comix;
  #Integrator Rambo;
  End process;
}(processes);

(selector){
  Mass -11 11 66 116
  PT 21 30 E_CMS;
  Y 21 -5 5;
  DR 21 1 0.4 1e20;
}(selector);
